{
  "idArticle": 48458,
  "title": "",
  "urlArticle": "",
  "urlEndVideo": "",
  "urlTweet": "",
  "isSummarized": false,
  "isKeywords": false,
  "isMedia": false,
  "isMediaChecked": false,
  "isValidateed": false,
  "isUploaded": false,
  "isVideoShared": false,
  "summary": {
    "0": "",
    "1": "",
    "2": "",
    "3": "",
    "4": "",
    "5": "",
    "6": ""
  },
  "keyword": {
    "0": [],
    "1": [],
    "2": [],
    "3": [],
    "4": [],
    "5": [],
    "6": []
  },
  "media": {
    "0": [],
    "1": [],
    "2": [],
    "3": [],
    "4": [],
    "5": [],
    "6": []
  }
}